<svg width="76" height="76" viewBox="0 0 76 76" fill="none" xmlns="http://www.w3.org/2000/svg">
<rect y="-4.76837e-07" width="76" height="76" rx="38" fill="url(#paint0_linear)"/>
<path d="M26.4811 64.42C24.8011 64.42 23.4711 63.93 22.4911 62.95C21.5111 61.97 21.0211 60.64 21.0211 58.96V19.76C21.0211 18.1267 21.4644 16.8667 22.3511 15.98C23.2378 15.0933 24.4978 14.65 26.1311 14.65H43.7011C49.0678 14.65 53.2444 16.0033 56.2311 18.71C59.2178 21.4167 60.7111 25.1967 60.7111 30.05C60.7111 34.9033 59.2178 38.6833 56.2311 41.39C53.2444 44.0967 49.0678 45.45 43.7011 45.45H31.9411V58.96C31.9411 60.64 31.4511 61.97 30.4711 62.95C29.4911 63.93 28.1611 64.42 26.4811 64.42ZM42.3011 37.19C47.7611 37.19 50.4911 34.8333 50.4911 30.12C50.4911 25.36 47.7611 22.98 42.3011 22.98H31.9411V37.19H42.3011Z" fill="white"/>
<defs>
<linearGradient id="paint0_linear" x1="38" y1="-4.76837e-07" x2="38" y2="152" gradientUnits="userSpaceOnUse">
<stop stop-color="#D30000"/>
<stop offset="1" stop-color="#370000"/>
</linearGradient>
</defs>
</svg>
