<svg width="60" height="60" viewBox="0 0 60 60" fill="none" xmlns="http://www.w3.org/2000/svg">
<path d="M29.5872 4.80231C26.7259 4.80231 24.3598 5.78275 22.3354 7.80715C20.3105 9.83201 19.3297 12.1986 19.3297 15.059C19.3297 17.9202 20.3105 20.2868 22.3353 22.3112L29.5872 4.80231ZM29.5872 4.80231C32.4481 4.80231 34.8147 5.78275 36.8395 7.80717M29.5872 4.80231L36.8395 7.80717M36.8395 7.80717C38.8639 9.83203 39.8448 12.1986 39.8448 15.059M36.8395 7.80717L39.8448 15.059M39.8448 15.059C39.8448 17.9202 38.8639 20.2864 36.8395 22.3113M39.8448 15.059L36.8395 22.3113M36.8395 22.3113C34.8146 24.3361 32.448 25.3165 29.5872 25.3165M36.8395 22.3113L29.5872 25.3165M29.5872 25.3165C26.7269 25.3165 24.3607 24.3357 22.3354 22.3112L29.5872 25.3165ZM39.5823 25.0536L39.5823 25.0536C42.3281 22.3074 43.7232 18.941 43.7232 15.059C43.7232 11.1783 42.3285 7.81143 39.5819 5.06435L39.5818 5.06431C36.8352 2.31856 33.4684 0.923828 29.5872 0.923828C25.7052 0.923828 22.3388 2.31856 19.5926 5.06477C16.8464 7.81098 15.4512 11.1778 15.4512 15.059C15.4512 18.941 16.8464 22.3079 19.5926 25.0541L19.5926 25.0541C22.3397 27.7998 25.7065 29.195 29.5872 29.195C33.4688 29.195 36.8356 27.8003 39.5823 25.0536Z" fill="black" stroke="black" stroke-width="0.5"/>
<path d="M53.662 41.8198L53.662 41.8199C53.8952 43.1213 54.0539 44.3557 54.1325 45.4895M54.1325 45.4895L53.8831 45.5068M54.1325 45.4895C54.1325 45.4894 54.1325 45.4894 54.1325 45.4893L53.8831 45.5068M54.1325 45.4895C54.2099 46.5934 54.2492 47.745 54.2496 48.912V48.9121C54.2496 51.9792 53.2727 54.4861 51.3283 56.3362L51.156 56.1551C53.043 54.3596 53.9996 51.9224 53.9996 48.9121C53.9992 47.7504 53.96 46.6046 53.8831 45.5068" fill="black" stroke="black" stroke-width="0.5"/>
</svg>
